[
  {
  "typ":"JWT",
  "alg":"HS256"
  },
  {
    "iss":"https://example.org",
    "sub":"124",
    "aud":"https://example.org/portal",
    "iat":1638220548,
    "exp":1638250000,
    "email": "user@example.org",
    "roles": ["role1", "role2", "admin"],
    "toto":"tata"
  }
]

